2015-01-27 16:01:54,230;1121;Maßnahmenklasse:;1
2015-01-27 16:01:54,266;1121;Maßnahmenklasse:;1
2015-01-27 16:01:54,297;1121;Maßnahmenklasse:;1
2015-01-27 16:01:54,328;1121;Maßnahmenklasse:;1
2015-01-27 16:01:54,364;1121;Maßnahmenklasse:;1
2015-01-27 16:01:54,397;1121;Maßnahmenklasse:;1
2015-01-27 16:01:54,429;1121;Maßnahmenklasse:;1
2015-01-27 16:01:54,465;1121;Maßnahmenklasse:;1
2015-01-27 16:01:54,499;1121;Maßnahmenklasse:;1
2015-01-27 16:01:54,530;1121;Maßnahmenklasse:;1
2015-01-27 16:01:54,564;1121;Maßnahmenklasse:;1
2015-01-27 16:01:54,597;1121;Maßnahmenklasse:;1
2015-01-27 16:01:54,630;1121;Maßnahmenklasse:;1
2015-01-27 16:01:54,663;1121;Maßnahmenklasse:;1
2015-01-27 16:01:54,697;1121;Maßnahmenklasse:;1
2015-01-27 16:01:54,731;1121;Maßnahmenklasse:;1
2015-01-27 16:01:54,766;1121;Maßnahmenklasse:;1
2015-01-27 16:01:54,810;1121;Maßnahmenklasse:;1
2015-01-27 16:01:54,831;1121;Maßnahmenklasse:;1
2015-01-27 16:01:54,865;1121;Maßnahmenklasse:;1
2015-01-27 16:01:54,897;1121;Maßnahmenklasse:;1
2015-01-27 16:01:54,930;1121;Maßnahmenklasse:;1
2015-01-27 16:01:54,965;1121;Maßnahmenklasse:;1
2015-01-27 16:01:54,998;1121;Maßnahmenklasse:;1
2015-01-27 16:01:55,031;1121;Maßnahmenklasse:;1
2015-01-27 16:01:55,065;1121;Maßnahmenklasse:;1
2015-01-27 16:01:55,098;1121;Maßnahmenklasse:;1
2015-01-27 16:01:55,130;1121;Maßnahmenklasse:;1
2015-01-27 16:01:55,164;1121;Maßnahmenklasse:;1
2015-01-27 16:01:55,198;1121;Maßnahmenklasse:;1
2015-01-27 16:01:55,229;1121;Maßnahmenklasse:;1
2015-01-27 16:01:55,264;1121;Maßnahmenklasse:;1
2015-01-27 16:01:55,298;1121;Maßnahmenklasse:;1
2015-01-27 16:01:55,332;1121;Maßnahmenklasse:;1
2015-01-27 16:01:55,364;1121;Maßnahmenklasse:;1
2015-01-27 16:01:55,397;1121;Maßnahmenklasse:;1
2015-01-27 16:01:55,432;1121;Maßnahmenklasse:;1
2015-01-27 16:01:55,465;1121;Maßnahmenklasse:;1
2015-01-27 16:01:55,499;1121;Maßnahmenklasse:;1
2015-01-27 16:01:55,532;1121;Maßnahmenklasse:;1
2015-01-27 16:01:55,567;1221;Maßnahmenklasse:;1
2015-01-27 16:01:55,598;1221;Maßnahmenklasse:;1
2015-01-27 16:01:55,631;1221;Maßnahmenklasse:;1
2015-01-27 16:01:55,666;1221;Maßnahmenklasse:;1
2015-01-27 16:01:55,707;1221;Maßnahmenklasse:;1
2015-01-27 16:01:55,731;1221;Maßnahmenklasse:;1
2015-01-27 16:01:55,765;1221;Maßnahmenklasse:;1
2015-01-27 16:01:55,798;1221;Maßnahmenklasse:;1
2015-01-27 16:01:55,830;1221;Maßnahmenklasse:;1
2015-01-27 16:01:55,864;1221;Maßnahmenklasse:;1
2015-01-27 16:01:55,899;1221;Maßnahmenklasse:;1
2015-01-27 16:01:55,930;1221;Maßnahmenklasse:;1
2015-01-27 16:01:55,966;1221;Maßnahmenklasse:;1
2015-01-27 16:01:55,999;1221;Maßnahmenklasse:;1
2015-01-27 16:01:56,032;1221;Maßnahmenklasse:;1
2015-01-27 16:01:56,063;1221;Maßnahmenklasse:;1
2015-01-27 16:01:56,098;1221;Maßnahmenklasse:;1
2015-01-27 16:01:56,133;1221;Maßnahmenklasse:;1
2015-01-27 16:01:56,164;1221;Maßnahmenklasse:;1
2015-01-27 16:01:56,199;1221;Maßnahmenklasse:;1
2015-01-27 16:01:56,234;1221;Maßnahmenklasse:;1
2015-01-27 16:01:56,265;1221;Maßnahmenklasse:;1
2015-01-27 16:01:56,298;1221;Maßnahmenklasse:;1
2015-01-27 16:01:56,333;1221;Maßnahmenklasse:;1
2015-01-27 16:01:56,366;1221;Maßnahmenklasse:;1
2015-01-27 16:01:56,397;1321;Maßnahmenklasse:;1
2015-01-27 16:01:56,434;1221;Maßnahmenklasse:;1
2015-01-27 16:01:56,468;1221;Maßnahmenklasse:;1
2015-01-27 16:01:56,500;1221;Maßnahmenklasse:;1
2015-01-27 16:01:56,532;1321;Maßnahmenklasse:;1
2015-01-27 16:01:56,567;1321;Maßnahmenklasse:;1
2015-01-27 16:01:56,599;1321;Maßnahmenklasse:;1
2015-01-27 16:01:56,630;1321;Maßnahmenklasse:;1
2015-01-27 16:01:56,666;1321;Maßnahmenklasse:;1
2015-01-27 16:01:56,700;1321;Maßnahmenklasse:;1
2015-01-27 16:01:56,731;1321;Maßnahmenklasse:;1
2015-01-27 16:01:56,765;1321;Maßnahmenklasse:;1
2015-01-27 16:01:56,799;1321;Maßnahmenklasse:;1
2015-01-27 16:01:56,832;1321;Maßnahmenklasse:;1
2015-01-27 16:01:56,865;1321;Maßnahmenklasse:;1
2015-01-27 16:01:56,899;1321;Maßnahmenklasse:;1
2015-01-27 16:01:56,933;1321;Maßnahmenklasse:;1
2015-01-27 16:01:56,965;1321;Maßnahmenklasse:;1
2015-01-27 16:01:56,998;1321;Maßnahmenklasse:;1
2015-01-27 16:01:57,034;1321;Maßnahmenklasse:;1
2015-01-27 16:01:57,067;1321;Maßnahmenklasse:;1
2015-01-27 16:01:57,097;1321;Maßnahmenklasse:;1
2015-01-27 16:01:57,132;1321;Maßnahmenklasse:;1
2015-01-27 16:01:57,166;1321;Maßnahmenklasse:;1
2015-01-27 16:01:57,199;1321;Maßnahmenklasse:;1
2015-01-27 16:01:57,234;1321;Maßnahmenklasse:;1
2015-01-27 16:01:57,268;1321;Maßnahmenklasse:;1
2015-01-27 16:01:57,300;1321;Maßnahmenklasse:;1
2015-01-27 16:01:57,332;1321;Maßnahmenklasse:;1
2015-01-27 16:01:57,373;1321;Maßnahmenklasse:;1
2015-01-27 16:01:57,399;1321;Maßnahmenklasse:;1
2015-01-27 16:01:57,431;1321;Maßnahmenklasse:;1
2015-01-27 16:01:57,466;1321;Maßnahmenklasse:;1
2015-01-27 16:01:57,500;1321;Maßnahmenklasse:;1
2015-01-27 16:01:57,532;1321;Maßnahmenklasse:;1
2015-01-27 16:01:57,564;1321;Maßnahmenklasse:;1
2015-01-27 16:01:57,600;1321;Maßnahmenklasse:;1
2015-01-27 16:01:57,634;1321;Maßnahmenklasse:;1
2015-01-27 16:01:57,665;1321;Maßnahmenklasse:;1
2015-01-27 16:01:57,700;1321;Maßnahmenklasse:;1
2015-01-27 16:01:57,735;1221;Maßnahmenklasse:;1
2015-01-27 16:01:57,766;1221;Maßnahmenklasse:;1
2015-01-27 16:01:57,798;1221;Maßnahmenklasse:;1
2015-01-27 16:01:57,833;1221;Maßnahmenklasse:;1
2015-01-27 16:01:57,866;1221;Maßnahmenklasse:;1
2015-01-27 16:01:57,898;1221;Maßnahmenklasse:;1
2015-01-27 16:01:57,932;1221;Maßnahmenklasse:;1
2015-01-27 16:01:57,968;1221;Maßnahmenklasse:;1
2015-01-27 16:01:58,000;1221;Maßnahmenklasse:;1
2015-01-27 16:01:58,031;1221;Maßnahmenklasse:;1
2015-01-27 16:01:58,066;1221;Maßnahmenklasse:;1
2015-01-27 16:01:58,099;1221;Maßnahmenklasse:;1
2015-01-27 16:01:58,131;1221;Maßnahmenklasse:;1
2015-01-27 16:01:58,170;1221;Maßnahmenklasse:;1
2015-01-27 16:01:58,201;1221;Maßnahmenklasse:;1
2015-01-27 16:01:58,233;1221;Maßnahmenklasse:;1
2015-01-27 16:01:58,265;1221;Maßnahmenklasse:;1
2015-01-27 16:01:58,300;1221;Maßnahmenklasse:;1
2015-01-27 16:01:58,332;1221;Maßnahmenklasse:;1
2015-01-27 16:01:58,365;1221;Maßnahmenklasse:;1
2015-01-27 16:01:58,400;1221;Maßnahmenklasse:;1
2015-01-27 16:01:58,434;1221;Maßnahmenklasse:;1
2015-01-27 16:01:58,466;1221;Maßnahmenklasse:;1
2015-01-27 16:01:58,499;1221;Maßnahmenklasse:;1
2015-01-27 16:01:58,533;1221;Maßnahmenklasse:;1
2015-01-27 16:01:58,565;1221;Maßnahmenklasse:;1
2015-01-27 16:01:58,598;1221;Maßnahmenklasse:;1
2015-01-27 16:01:58,631;1221;Maßnahmenklasse:;1
2015-01-27 16:01:58,667;1221;Maßnahmenklasse:;1
2015-01-27 16:01:58,699;1221;Maßnahmenklasse:;1
2015-01-27 16:01:58,733;1221;Maßnahmenklasse:;1
2015-01-27 16:01:58,768;1221;Maßnahmenklasse:;1
2015-01-27 16:01:58,800;1121;Maßnahmenklasse:;1
2015-01-27 16:01:58,831;1121;Maßnahmenklasse:;1
2015-01-27 16:01:58,867;1121;Maßnahmenklasse:;1
2015-01-27 16:01:58,901;1121;Maßnahmenklasse:;1
2015-01-27 16:01:58,931;1121;Maßnahmenklasse:;1
2015-01-27 16:01:58,981;1121;Maßnahmenklasse:;1
2015-01-27 16:01:58,997;1121;Maßnahmenklasse:;1
2015-01-27 16:01:59,032;1121;Maßnahmenklasse:;1
2015-01-27 16:01:59,064;1121;Maßnahmenklasse:;1
2015-01-27 16:01:59,100;1121;Maßnahmenklasse:;1
2015-01-27 16:01:59,131;1121;Maßnahmenklasse:;1
2015-01-27 16:01:59,166;1121;Maßnahmenklasse:;1
2015-01-27 16:01:59,198;1121;Maßnahmenklasse:;1
2015-01-27 16:01:59,233;1121;Maßnahmenklasse:;1
2015-01-27 16:01:59,266;1121;Maßnahmenklasse:;1
2015-01-27 16:01:59,298;1121;Maßnahmenklasse:;1
2015-01-27 16:01:59,331;1121;Maßnahmenklasse:;1
2015-01-27 16:01:59,366;1121;Maßnahmenklasse:;1
2015-01-27 16:01:59,397;1121;Maßnahmenklasse:;1
2015-01-27 16:01:59,433;1121;Maßnahmenklasse:;1
2015-01-27 16:01:59,467;1121;Maßnahmenklasse:;1
2015-01-27 16:01:59,500;1121;Maßnahmenklasse:;1
2015-01-27 16:01:59,531;1121;Maßnahmenklasse:;1
2015-01-27 16:01:59,566;1121;Maßnahmenklasse:;1
2015-01-27 16:01:59,600;1121;Maßnahmenklasse:;1
2015-01-27 16:01:59,631;1121;Maßnahmenklasse:;1
2015-01-27 16:01:59,667;1121;Maßnahmenklasse:;1
2015-01-27 16:01:59,702;1121;Maßnahmenklasse:;1
2015-01-27 16:01:59,734;1121;Maßnahmenklasse:;1
2015-01-27 16:01:59,765;1121;Maßnahmenklasse:;1
2015-01-27 16:01:59,799;1121;Maßnahmenklasse:;1
2015-01-27 16:01:59,832;1121;Maßnahmenklasse:;1
2015-01-27 16:01:59,864;1121;Maßnahmenklasse:;1
2015-01-27 16:01:59,900;1121;Maßnahmenklasse:;1
2015-01-27 16:01:59,931;1121;Maßnahmenklasse:;1
2015-01-27 16:01:59,966;1121;Maßnahmenklasse:;1
2015-01-27 16:01:59,998;1121;Maßnahmenklasse:;1
2015-01-27 16:02:00,032;1121;Maßnahmenklasse:;1
2015-01-27 16:02:00,066;1121;Maßnahmenklasse:;1
2015-01-27 16:02:00,097;1121;Maßnahmenklasse:;1
2015-01-27 16:02:00,131;1121;Maßnahmenklasse:;1
2015-01-27 16:02:00,167;1121;Maßnahmenklasse:;1
2015-01-27 16:02:00,197;1121;Maßnahmenklasse:;1
2015-01-27 16:02:00,232;1121;Maßnahmenklasse:;1
2015-01-27 16:02:00,266;1121;Maßnahmenklasse:;1
2015-01-27 16:02:00,299;1121;Maßnahmenklasse:;1
2015-01-27 16:02:00,330;1121;Maßnahmenklasse:;1
2015-01-27 16:02:00,366;1121;Maßnahmenklasse:;1
2015-01-27 16:02:00,400;1121;Maßnahmenklasse:;1
2015-01-27 16:02:00,432;1121;Maßnahmenklasse:;1
2015-01-27 16:02:00,465;1121;Maßnahmenklasse:;1
2015-01-27 16:02:00,507;1121;Maßnahmenklasse:;1
2015-01-27 16:02:00,532;1121;Maßnahmenklasse:;1
2015-01-27 16:02:00,564;1121;Maßnahmenklasse:;1
2015-01-27 16:02:00,599;1121;Maßnahmenklasse:;1
2015-01-27 16:02:00,632;1121;Maßnahmenklasse:;1
2015-01-27 16:02:00,664;1121;Maßnahmenklasse:;1
