Datum Uhrzeit Owas_Code Maßnahmenklasse
2015-01-27 17:04:52,865 3121 1
2015-01-27 17:04:52,895 3121 1
2015-01-27 17:04:52,931 3121 1
2015-01-27 17:04:52,963 3121 1
2015-01-27 17:04:52,996 3121 1
2015-01-27 17:04:53,030 3121 1
2015-01-27 17:04:53,064 3121 1
2015-01-27 17:04:53,095 3121 1
2015-01-27 17:04:53,129 3121 1
2015-01-27 17:04:53,163 3121 1
2015-01-27 17:04:53,201 3121 1
2015-01-27 17:04:53,235 3121 1
2015-01-27 17:04:53,263 3121 1
2015-01-27 17:04:53,296 3121 1
2015-01-27 17:04:53,331 3121 1
2015-01-27 17:04:53,364 3121 1
2015-01-27 17:04:53,397 3121 1
2015-01-27 17:04:53,431 3121 1
2015-01-27 17:04:53,464 3161 1
2015-01-27 17:04:53,496 3161 1
2015-01-27 17:04:53,530 1161 1
2015-01-27 17:04:53,564 1161 1
2015-01-27 17:04:53,613 1161 1
2015-01-27 17:04:53,629 3131 1
2015-01-27 17:04:53,663 3121 1
2015-01-27 17:04:53,697 3161 1
2015-01-27 17:04:53,731 3161 1
2015-01-27 17:04:53,764 3161 1
2015-01-27 17:04:53,796 3161 1
2015-01-27 17:04:53,831 3121 1
2015-01-27 17:04:53,863 3131 1
2015-01-27 17:04:53,896 3131 1
2015-01-27 17:04:53,934 3161 1
2015-01-27 17:04:53,964 3161 1
2015-01-27 17:04:53,996 3161 1
2015-01-27 17:04:54,031 3121 1
2015-01-27 17:04:54,063 3121 1
2015-01-27 17:04:54,096 3121 1
2015-01-27 17:04:54,130 3121 1
2015-01-27 17:04:54,163 3121 1
2015-01-27 17:04:54,198 3121 1
2015-01-27 17:04:54,231 3121 1
2015-01-27 17:04:54,263 3121 1
2015-01-27 17:04:54,297 3121 1
2015-01-27 17:04:54,330 3121 1
2015-01-27 17:04:54,381 3121 1
2015-01-27 17:04:54,395 3121 1
2015-01-27 17:04:54,429 3121 1
2015-01-27 17:04:54,463 3121 1
2015-01-27 17:04:54,496 3121 1
2015-01-27 17:04:54,529 3121 1
2015-01-27 17:04:54,563 3121 1
2015-01-27 17:04:54,595 3121 1
2015-01-27 17:04:54,629 3121 1
2015-01-27 17:04:54,663 3121 1
2015-01-27 17:04:54,696 3121 1
2015-01-27 17:04:54,735 3121 1
2015-01-27 17:04:54,767 3121 1
2015-01-27 17:04:54,796 3121 1
2015-01-27 17:04:54,830 3121 1
2015-01-27 17:04:54,863 3121 1
2015-01-27 17:04:54,897 3121 1
2015-01-27 17:04:54,930 3121 1
2015-01-27 17:04:54,963 3121 1
2015-01-27 17:04:54,996 3121 1
2015-01-27 17:04:55,031 3121 1
2015-01-27 17:04:55,063 3121 1
2015-01-27 17:04:55,097 3121 1
2015-01-27 17:04:55,131 3121 1
2015-01-27 17:04:55,163 3121 1
2015-01-27 17:04:55,198 3121 1
2015-01-27 17:04:55,235 3121 1
2015-01-27 17:04:55,270 1121 1
2015-01-27 17:04:55,300 1121 1
2015-01-27 17:04:55,331 1121 1
2015-01-27 17:04:55,364 3121 1
2015-01-27 17:04:55,396 3121 1
2015-01-27 17:04:55,431 3121 1
2015-01-27 17:04:55,464 3121 1
2015-01-27 17:04:55,496 3121 1
2015-01-27 17:04:55,531 3121 1
2015-01-27 17:04:55,564 1121 1
2015-01-27 17:04:55,597 1121 1
2015-01-27 17:04:55,629 3121 1
2015-01-27 17:04:55,664 3121 1
2015-01-27 17:04:55,696 3121 1
2015-01-27 17:04:55,731 3121 1
2015-01-27 17:04:55,764 3121 1
2015-01-27 17:04:55,796 3121 1
2015-01-27 17:04:55,833 3121 1
2015-01-27 17:04:55,863 3121 1
2015-01-27 17:04:55,900 3121 1
2015-01-27 17:04:55,937 1121 1
2015-01-27 17:04:55,968 3121 1
2015-01-27 17:04:56,000 1121 1
2015-01-27 17:04:56,031 1121 1
2015-01-27 17:04:56,064 1121 1
2015-01-27 17:04:56,097 1121 1
2015-01-27 17:04:56,131 1121 1
2015-01-27 17:04:56,164 1121 1
2015-01-27 17:04:56,197 1121 1
2015-01-27 17:04:56,232 1121 1
2015-01-27 17:04:56,263 1121 1
2015-01-27 17:04:56,296 1121 1
2015-01-27 17:04:56,332 1121 1
2015-01-27 17:04:56,365 1121 1
2015-01-27 17:04:56,398 1121 1
2015-01-27 17:04:56,432 1121 1
2015-01-27 17:04:56,465 1121 1
2015-01-27 17:04:56,505 1121 1
2015-01-27 17:04:56,532 1121 1
2015-01-27 17:04:56,567 1121 1
2015-01-27 17:04:56,596 1121 1
2015-01-27 17:04:56,631 1121 1
2015-01-27 17:04:56,663 1121 1
2015-01-27 17:04:56,696 1121 1
2015-01-27 17:04:56,730 1121 1
2015-01-27 17:04:56,767 1121 1
2015-01-27 17:04:56,802 1121 1
2015-01-27 17:04:56,834 1121 1
2015-01-27 17:04:56,866 1121 1
2015-01-27 17:04:56,897 1121 1
2015-01-27 17:04:56,931 1121 1
2015-01-27 17:04:56,964 1121 1
2015-01-27 17:04:56,997 1121 1
2015-01-27 17:04:57,031 1121 1
2015-01-27 17:04:57,064 1121 1
2015-01-27 17:04:57,095 1121 1
2015-01-27 17:04:57,137 1121 1
2015-01-27 17:04:57,170 1121 1
2015-01-27 17:04:57,199 1121 1
2015-01-27 17:04:57,233 1121 1
2015-01-27 17:04:57,268 1121 1
2015-01-27 17:04:57,297 1121 1
2015-01-27 17:04:57,331 1121 1
2015-01-27 17:04:57,364 1121 1
2015-01-27 17:04:57,397 1121 1
2015-01-27 17:04:57,431 1121 1
2015-01-27 17:04:57,464 1121 1
2015-01-27 17:04:57,496 1121 1
2015-01-27 17:04:57,531 1121 1
2015-01-27 17:04:57,565 1121 1
2015-01-27 17:04:57,597 1121 1
2015-01-27 17:04:57,631 1121 1
2015-01-27 17:04:57,664 1121 1
2015-01-27 17:04:57,697 1121 1
2015-01-27 17:04:57,735 1121 1
2015-01-27 17:04:57,764 1121 1
2015-01-27 17:04:57,798 1121 1
2015-01-27 17:04:57,852 1121 1
2015-01-27 17:04:57,875 1121 1
2015-01-27 17:04:57,897 1121 1
2015-01-27 17:04:57,931 1121 1
2015-01-27 17:04:57,963 1121 1
2015-01-27 17:04:57,996 1121 1
2015-01-27 17:04:58,032 1121 1
2015-01-27 17:04:58,064 1121 1
2015-01-27 17:04:58,096 1121 1
2015-01-27 17:04:58,131 1121 1
2015-01-27 17:04:58,164 1121 1
2015-01-27 17:04:58,197 2121 1
2015-01-27 17:04:58,232 2121 2
2015-01-27 17:04:58,264 2121 2
2015-01-27 17:04:58,296 2121 2
2015-01-27 17:04:58,332 2121 2
2015-01-27 17:04:58,365 2121 2
2015-01-27 17:04:58,397 2121 2
2015-01-27 17:04:58,432 2121 2
2015-01-27 17:04:58,465 2121 2
2015-01-27 17:04:58,497 2121 2
2015-01-27 17:04:58,531 2121 2
2015-01-27 17:04:58,563 2121 2
2015-01-27 17:04:58,597 2121 2
2015-01-27 17:04:58,631 2121 2
2015-01-27 17:04:58,664 2121 2
2015-01-27 17:04:58,696 2121 2
2015-01-27 17:04:58,736 2121 2
2015-01-27 17:04:58,767 2121 2
2015-01-27 17:04:58,797 2121 2
2015-01-27 17:04:58,831 2121 2
2015-01-27 17:04:58,864 2121 2
2015-01-27 17:04:58,896 2121 2
2015-01-27 17:04:58,931 2121 2
2015-01-27 17:04:58,963 2121 2
2015-01-27 17:04:58,998 2121 2
2015-01-27 17:04:59,031 2121 2
2015-01-27 17:04:59,064 2121 2
2015-01-27 17:04:59,097 2121 2
2015-01-27 17:04:59,138 2121 2
2015-01-27 17:04:59,164 2121 2
2015-01-27 17:04:59,197 2121 2
2015-01-27 17:04:59,231 2121 2
2015-01-27 17:04:59,264 2121 2
2015-01-27 17:04:59,298 2121 2
2015-01-27 17:04:59,331 2121 2
2015-01-27 17:04:59,364 2121 2
2015-01-27 17:04:59,398 2121 2
2015-01-27 17:04:59,432 2121 2
2015-01-27 17:04:59,465 2121 2
2015-01-27 17:04:59,497 2121 2
2015-01-27 17:04:59,532 2121 2
2015-01-27 17:04:59,565 2121 2
2015-01-27 17:04:59,597 1121 2
2015-01-27 17:04:59,632 1121 1
2015-01-27 17:04:59,664 1121 1
2015-01-27 17:04:59,698 1121 1
2015-01-27 17:04:59,732 1121 1
2015-01-27 17:04:59,771 1121 1
2015-01-27 17:04:59,802 1121 1
2015-01-27 17:04:59,835 1121 1
2015-01-27 17:04:59,864 1121 1
2015-01-27 17:04:59,897 1121 1
2015-01-27 17:04:59,931 1121 1
2015-01-27 17:04:59,965 1121 1
2015-01-27 17:04:59,997 1121 1
2015-01-27 17:05:00,031 1121 1
2015-01-27 17:05:00,067 1121 1
2015-01-27 17:05:00,097 1121 1
2015-01-27 17:05:00,131 1121 1
2015-01-27 17:05:00,164 1121 1
2015-01-27 17:05:00,198 1121 1
2015-01-27 17:05:00,230 1121 1
2015-01-27 17:05:00,264 1121 1
2015-01-27 17:05:00,297 1121 1
2015-01-27 17:05:00,333 1121 1
2015-01-27 17:05:00,365 1121 1
2015-01-27 17:05:00,410 1121 1
2015-01-27 17:05:00,431 1121 1
2015-01-27 17:05:00,463 1121 1
2015-01-27 17:05:00,497 1121 1
2015-01-27 17:05:00,531 1121 1
2015-01-27 17:05:00,563 1121 1
2015-01-27 17:05:00,596 1121 1
2015-01-27 17:05:00,630 1121 1
2015-01-27 17:05:00,664 1121 1
2015-01-27 17:05:00,696 1121 1
2015-01-27 17:05:00,731 1121 1
2015-01-27 17:05:00,764 1121 1
2015-01-27 17:05:00,797 1121 1
2015-01-27 17:05:00,832 1121 1
2015-01-27 17:05:00,865 1121 1
2015-01-27 17:05:00,897 1121 1
2015-01-27 17:05:00,931 1121 1
2015-01-27 17:05:00,964 1121 1
2015-01-27 17:05:00,998 1121 1
2015-01-27 17:05:01,031 1121 1
2015-01-27 17:05:01,071 1121 1
2015-01-27 17:05:01,096 1121 1
2015-01-27 17:05:01,130 1121 1
2015-01-27 17:05:01,163 1121 1
2015-01-27 17:05:01,196 1121 1
2015-01-27 17:05:01,231 1121 1
2015-01-27 17:05:01,263 1121 1
2015-01-27 17:05:01,297 1121 1
2015-01-27 17:05:01,331 1121 1
2015-01-27 17:05:01,364 1121 1
2015-01-27 17:05:01,397 1121 1
2015-01-27 17:05:01,436 1121 1
2015-01-27 17:05:01,465 1121 1
2015-01-27 17:05:01,497 1121 1
2015-01-27 17:05:01,531 1121 1
2015-01-27 17:05:01,564 1121 1
2015-01-27 17:05:01,597 1121 1
2015-01-27 17:05:01,630 1121 1
2015-01-27 17:05:01,664 1121 1
2015-01-27 17:05:01,696 1121 1
2015-01-27 17:05:01,737 1121 1
2015-01-27 17:05:01,762 1121 1
2015-01-27 17:05:01,796 1121 1
2015-01-27 17:05:01,830 1121 1
2015-01-27 17:05:01,863 1121 1
2015-01-27 17:05:01,896 1121 1
